{
  "formatVersion": 1,
  "database": {
    "version": 1,
    "identityHash": "63d0bba718a48f23cbc9750670ee343a",
    "entities": [
      {
        "tableName": "Bip44WalletData",
        "createSql": "CREATE TABLE IF NOT EXISTS `${TABLE_NAME}` (`id` TEXT NOT NULL, `secret` BLOB NOT NULL, `maxAddress` INTEGER NOT NULL, PRIMARY KEY(`id`))",
        "fields": [
          {
            "fieldPath": "id",
            "columnName": "id",
            "affinity": "TEXT",
            "notNull": true
          },
          {
            "fieldPath": "secret",
            "columnName": "secret",
            "affinity": "BLOB",
            "notNull": true
          },
          {
            "fieldPath": "maxAddress",
            "columnName": "maxAddress",
            "affinity": "INTEGER",
            "notNull": true
          }
        ],
        "primaryKey": {
          "columnNames": [
            "id"
          ],
          "autoGenerate": false
        },
        "indices": [],
        "foreignKeys": []
      }
    ],
    "views": [],
    "setupQueries": [
      "CREATE TABLE IF NOT EXISTS room_master_table (id INTEGER PRIMARY KEY,identity_hash TEXT)",
      "INSERT OR REPLACE INTO room_master_table (id,identity_hash) VALUES(42, \"63d0bba718a48f23cbc9750670ee343a\")"
    ]
  }
}