{
  "formatVersion": 1,
  "database": {
    "version": 2,
    "identityHash": "286d07b0d048dd01b44fd1c5c38e4ee5",
    "entities": [
      {
        "tableName": "KvpData",
        "createSql": "CREATE TABLE IF NOT EXISTS `${TABLE_NAME}` (`id` BLOB NOT NULL, `value` BLOB NOT NULL, PRIMARY KEY(`id`))",
        "fields": [
          {
            "fieldPath": "id",
            "columnName": "id",
            "affinity": "BLOB",
            "notNull": true
          },
          {
            "fieldPath": "value",
            "columnName": "value",
            "affinity": "BLOB",
            "notNull": true
          }
        ],
        "primaryKey": {
          "columnNames": [
            "id"
          ],
          "autoGenerate": false
        },
        "indices": [],
        "foreignKeys": []
      }
    ],
    "views": [],
    "setupQueries": [
      "CREATE TABLE IF NOT EXISTS room_master_table (id INTEGER PRIMARY KEY,identity_hash TEXT)",
      "INSERT OR REPLACE INTO room_master_table (id,identity_hash) VALUES(42, \"286d07b0d048dd01b44fd1c5c38e4ee5\")"
    ]
  }
}